<html>
    <head>
        <title>Index Ujian Praktikum SRI_RAHAYU_1174015</title>
    </head>
    <body>
        <h1>Welcome!_SRI_RAHAYU_1174015</h1>
        <h2>Go To <a href="/users">Users</a> to see list of user information!</h2>
    </body>
</html>